…
maximum gdp per capita for each country

``` r
gapminder %>% 
  group_by(country) %>% 
  summarise(mingdppercap = max(gdpPercap))
```

    ## # A tibble: 142 x 2
    ##        country mingdppercap
    ##         <fctr>        <dbl>
    ##  1 Afghanistan     978.0114
    ##  2     Albania    5937.0295
    ##  3     Algeria    6223.3675
    ##  4      Angola    5522.7764
    ##  5   Argentina   12779.3796
    ##  6   Australia   34435.3674
    ##  7     Austria   36126.4927
    ##  8     Bahrain   29796.0483
    ##  9  Bangladesh    1391.2538
    ## 10     Belgium   33692.6051
    ## # ... with 132 more rows
…
Better to do it this way

``` r
filter(gapminder, country == "Rwanda" | country == "Afghanistan")
```

    ## # A tibble: 24 x 6
    ##        country continent  year lifeExp      pop gdpPercap
    ##         <fctr>    <fctr> <int>   <dbl>    <int>     <dbl>
    ##  1 Afghanistan      Asia  1952  28.801  8425333  779.4453
    ##  2 Afghanistan      Asia  1957  30.332  9240934  820.8530
    ##  3 Afghanistan      Asia  1962  31.997 10267083  853.1007
    ##  4 Afghanistan      Asia  1967  34.020 11537966  836.1971
    ##  5 Afghanistan      Asia  1972  36.088 13079460  739.9811
    ##  6 Afghanistan      Asia  1977  38.438 14880372  786.1134
    ##  7 Afghanistan      Asia  1982  39.854 12881816  978.0114
    ##  8 Afghanistan      Asia  1987  40.822 13867957  852.3959
    ##  9 Afghanistan      Asia  1992  41.674 16317921  649.3414
    ## 10 Afghanistan      Asia  1997  41.763 22227415  635.3414
    ## # ... with 14 more rows
